RV32I/Test Bench/dump.vcd
$date
	Mon Jul  7 19:37:52 2025
$end
$version
	Icarus Verilog
$end
$timescale
	1s
$end
$scope module tb $end
$var reg 1 ! clk $end
$var reg 1 " rst $end
$scope module dut $end
$var wire 1 ! clk $end
$var wire 1 " rst $end
$var wire 32 # WriteDataM [31:0] $end
$var wire 32 $ ResultW [31:0] $end
$var wire 1 % ResultSrcW $end
$var wire 1 & ResultSrcM $end
$var wire 1 ' ResultSrcE $end
$var wire 1 ( RegWriteW $end
$var wire 1 ) RegWriteM $end
$var wire 1 * RegWriteE $end
$var wire 32 + ReadDataW [31:0] $end
$var wire 5 , RS2_E [4:0] $end
$var wire 5 - RS1_E [4:0] $end
$var wire 5 . RD_M [4:0] $end
$var wire 5 / RD_E [4:0] $end
$var wire 5 0 RDW [4:0] $end
$var wire 32 1 RD2_E [31:0] $end
$var wire 32 2 RD1_E [31:0] $end
$var wire 32 3 PCTargetE [31:0] $end
$var wire 1 4 PCSrcE $end
$var wire 32 5 PCPlus4W [31:0] $end
$var wire 32 6 PCPlus4M [31:0] $end
$var wire 32 7 PCPlus4E [31:0] $end
$var wire 32 8 PCPlus4D [31:0] $end
$var wire 32 9 PCE [31:0] $end
$var wire 32 : PCD [31:0] $end
$var wire 1 ; MemWriteM $end
$var wire 1 < MemWriteE $end
$var wire 32 = InstrD [31:0] $end
$var wire 32 > Imm_Ext_E [31:0] $end
$var wire 2 ? ForwardBE [1:0] $end
$var wire 2 @ ForwardAE [1:0] $end
$var wire 1 A BranchE $end
$var wire 32 B ALU_ResultW [31:0] $end
$var wire 32 C ALU_ResultM [31:0] $end
$var wire 1 D ALUSrcE $end
$var wire 3 E ALUControlE [2:0] $end
$scope module Decode $end
$var wire 3 F ALUControlE [2:0] $end
$var wire 1 D ALUSrcE $end
$var wire 1 A BranchE $end
$var wire 32 G Imm_Ext_E [31:0] $end
$var wire 1 < MemWriteE $end
$var wire 32 H PCE [31:0] $end
$var wire 32 I PCPlus4E [31:0] $end
$var wire 32 J RD1_E [31:0] $end
$var wire 32 K RD2_E [31:0] $end
$var wire 5 L RD_E [4:0] $end
$var wire 5 M RS1_E [4:0] $end
$var wire 5 N RS2_E [4:0] $end
$var wire 1 * RegWriteE $end
$var wire 1 ' ResultSrcE $end
$var wire 1 ! clk $end
$var wire 1 " rst $end
$var wire 32 O ResultW [31:0] $end
$var wire 1 P ResultSrcD $end
$var wire 1 ( RegWriteW $end
$var wire 1 Q RegWriteD $end
$var wire 5 R RDW [4:0] $end
$var wire 32 S RD2_D [31:0] $end
$var wire 32 T RD1_D [31:0] $end
$var wire 32 U PCPlus4D [31:0] $end
$var wire 32 V PCD [31:0] $end
$var wire 1 W MemWriteD $end
$var wire 32 X InstrD [31:0] $end
$var wire 32 Y Imm_Ext_D [31:0] $end
$var wire 2 Z ImmSrcD [1:0] $end
$var wire 1 [ BranchD $end
$var wire 1 \ ALUSrcD $end
$var wire 3 ] ALUControlD [2:0] $end
$var reg 3 ^ ALUControlD_r [2:0] $end
$var reg 1 D ALUSrcD_r $end
$var reg 1 A BranchD_r $end
$var reg 32 _ Imm_Ext_D_r [31:0] $end
$var reg 1 ` MemWriteD_r $end
$var reg 32 a PCD_r [31:0] $end
$var reg 32 b PCPlus4D_r [31:0] $end
$var reg 32 c RD1_D_r [31:0] $end
$var reg 32 d RD2_D_r [31:0] $end
$var reg 5 e RD_D_r [4:0] $end
$var reg 5 f RS1_D_r [4:0] $end
$var reg 5 g RS2_D_r [4:0] $end
$var reg 1 h RegWriteD_r $end
$var reg 1 i ResultSrcD_r $end
$scope module control $end
$var wire 7 j Op [6:0] $end
$var wire 3 k funct3 [2:0] $end
$var wire 7 l funct7 [6:0] $end
$var wire 1 P ResultSrc $end
$var wire 1 Q RegWrite $end
$var wire 1 W MemWrite $end
$var wire 2 m ImmSrc [1:0] $end
$var wire 1 [ Branch $end
$var wire 1 \ ALUSrc $end
$var wire 2 n ALUOp [1:0] $end
$var wire 3 o ALUControl [2:0] $end
$scope module ALU_Decoder $end
$var wire 3 p funct3 [2:0] $end
$var wire 7 q funct7 [6:0] $end
$var wire 7 r op [6:0] $end
$var wire 2 s ALUOp [1:0] $end
$var wire 3 t ALUControl [2:0] $end
$upscope $end
$scope module Main_Decoder $end
$var wire 7 u Op [6:0] $end
$var wire 1 P ResultSrc $end
$var wire 1 Q RegWrite $end
$var wire 1 W MemWrite $end
$var wire 2 v ImmSrc [1:0] $end
$var wire 1 [ Branch $end
$var wire 1 \ ALUSrc $end
$var wire 2 w ALUOp [1:0] $end
$upscope $end
$upscope $end
$scope module extension $end
$var wire 2 x ImmSrc [1:0] $end
$var wire 32 y In [31:0] $end
$var wire 32 z Imm_Ext [31:0] $end
$upscope $end
$scope module rf $end
$var wire 5 { A1 [4:0] $end
$var wire 5 | A2 [4:0] $end
$var wire 1 ! clk $end
$var wire 1 " rst $end
$var wire 1 ( WE3 $end
$var wire 32 } WD3 [31:0] $end
$var wire 32 ~ RD2 [31:0] $end
$var wire 32 !" RD1 [31:0] $end
$var wire 5 "" A3 [4:0] $end
$upscope $end
$upscope $end
$scope module Execute $end
$var wire 3 #" ALUControlE [2:0] $end
$var wire 1 D ALUSrcE $end
$var wire 1 A BranchE $end
$var wire 32 $" Imm_Ext_E [31:0] $end
$var wire 1 < MemWriteE $end
$var wire 1 ; MemWriteM $end
$var wire 32 %" PCE [31:0] $end
$var wire 32 &" PCPlus4E [31:0] $end
$var wire 32 '" PCPlus4M [31:0] $end
$var wire 1 4 PCSrcE $end
$var wire 32 (" RD1_E [31:0] $end
$var wire 32 )" RD2_E [31:0] $end
$var wire 5 *" RD_E [4:0] $end
$var wire 5 +" RD_M [4:0] $end
$var wire 1 * RegWriteE $end
$var wire 1 ) RegWriteM $end
$var wire 1 ' ResultSrcE $end
$var wire 1 & ResultSrcM $end
$var wire 32 ," WriteDataM [31:0] $end
$var wire 1 ! clk $end
$var wire 1 " rst $end
$var wire 1 -" ZeroE $end
$var wire 32 ." Src_B_interim [31:0] $end
$var wire 32 /" Src_B [31:0] $end
$var wire 32 0" Src_A [31:0] $end
$var wire 32 1" ResultW [31:0] $end
$var wire 32 2" ResultE [31:0] $end
$var wire 32 3" PCTargetE [31:0] $end
$var wire 2 4" ForwardB_E [1:0] $end
$var wire 2 5" ForwardA_E [1:0] $end
$var wire 32 6" ALU_ResultM [31:0] $end
$var reg 1 7" MemWriteE_r $end
$var reg 32 8" PCPlus4E_r [31:0] $end
$var reg 32 9" RD2_E_r [31:0] $end
$var reg 5 :" RD_E_r [4:0] $end
$var reg 1 ) RegWriteE_r $end
$var reg 32 ;" ResultE_r [31:0] $end
$var reg 1 <" ResultSrcE_r $end
$scope module alu $end
$var wire 3 =" ALUControl [2:0] $end
$var wire 1 >" Carry $end
$var wire 1 ?" OverFlow $end
$var wire 1 -" Zero $end
$var wire 32 @" Sum [31:0] $end
$var wire 32 A" Result [31:0] $end
$var wire 1 B" Negative $end
$var wire 1 C" Cout $end
$var wire 32 D" B [31:0] $end
$var wire 32 E" A [31:0] $end
$upscope $end
$scope module alu_src_mux $end
$var wire 32 F" b [31:0] $end
$var wire 1 D s $end
$var wire 32 G" c [31:0] $end
$var wire 32 H" a [31:0] $end
$upscope $end
$scope module branch_adder $end
$var wire 32 I" a [31:0] $end
$var wire 32 J" b [31:0] $end
$var wire 32 K" c [31:0] $end
$upscope $end
$scope module srca_mux $end
$var wire 32 L" a [31:0] $end
$var wire 32 M" c [31:0] $end
$var wire 2 N" s [1:0] $end
$var wire 32 O" d [31:0] $end
$var wire 32 P" b [31:0] $end
$upscope $end
$scope module srcb_mux $end
$var wire 32 Q" a [31:0] $end
$var wire 32 R" c [31:0] $end
$var wire 2 S" s [1:0] $end
$var wire 32 T" d [31:0] $end
$var wire 32 U" b [31:0] $end
$upscope $end
$upscope $end
$scope module Fetch $end
$var wire 1 4 PCSrcE $end
$var wire 32 V" PCTargetE [31:0] $end
$var wire 1 ! clk $end
$var wire 1 " rst $end
$var wire 32 W" PC_F [31:0] $end
$var wire 32 X" PCPlus4F [31:0] $end
$var wire 32 Y" PCPlus4D [31:0] $end
$var wire 32 Z" PCF [31:0] $end
$var wire 32 [" PCD [31:0] $end
$var wire 32 \" InstrF [31:0] $end
$var wire 32 ]" InstrD [31:0] $end
$var reg 32 ^" InstrF_reg [31:0] $end
$var reg 32 _" PCF_reg [31:0] $end
$var reg 32 `" PCPlus4F_reg [31:0] $end
$scope module IMEM $end
$var wire 1 " rst $end
$var wire 32 a" RD [31:0] $end
$var wire 32 b" A [31:0] $end
$upscope $end
$scope module PC_MUX $end
$var wire 32 c" b [31:0] $end
$var wire 1 4 s $end
$var wire 32 d" c [31:0] $end
$var wire 32 e" a [31:0] $end
$upscope $end
$scope module PC_adder $end
$var wire 32 f" b [31:0] $end
$var wire 32 g" c [31:0] $end
$var wire 32 h" a [31:0] $end
$upscope $end
$scope module Program_Counter $end
$var wire 32 i" PC_Next [31:0] $end
$var wire 1 ! clk $end
$var wire 1 " rst $end
$var reg 32 j" PC [31:0] $end
$upscope $end
$upscope $end
$scope module Forwarding_block $end
$var wire 5 k" RD_M [4:0] $end
$var wire 1 ) RegWriteM $end
$var wire 5 l" Rs1_E [4:0] $end
$var wire 5 m" Rs2_E [4:0] $end
$var wire 1 " rst $end
$var wire 1 ( RegWriteW $end
$var wire 5 n" RD_W [4:0] $end
$var wire 2 o" ForwardBE [1:0] $end
$var wire 2 p" ForwardAE [1:0] $end
$upscope $end
$scope module Memory $end
$var wire 32 q" ALU_ResultM [31:0] $end
$var wire 32 r" ALU_ResultW [31:0] $end
$var wire 1 ; MemWriteM $end
$var wire 32 s" PCPlus4M [31:0] $end
$var wire 32 t" PCPlus4W [31:0] $end
$var wire 5 u" RD_M [4:0] $end
$var wire 5 v" RD_W [4:0] $end
$var wire 32 w" ReadDataW [31:0] $end
$var wire 1 ) RegWriteM $end
$var wire 1 ( RegWriteW $end
$var wire 1 & ResultSrcM $end
$var wire 1 % ResultSrcW $end
$var wire 32 x" WriteDataM [31:0] $end
$var wire 1 ! clk $end
$var wire 1 " rst $end
$var wire 32 y" ReadDataM [31:0] $end
$var reg 32 z" ALU_ResultM_r [31:0] $end
$var reg 32 {" PCPlus4M_r [31:0] $end
$var reg 5 |" RD_M_r [4:0] $end
$var reg 32 }" ReadDataM_r [31:0] $end
$var reg 1 ( RegWriteM_r $end
$var reg 1 % ResultSrcM_r $end
$scope module dmem $end
$var wire 32 ~" A [31:0] $end
$var wire 32 !# WD [31:0] $end
$var wire 1 ; WE $end
$var wire 1 ! clk $end
$var wire 1 " rst $end
$var wire 32 "# RD [31:0] $end
$upscope $end
$upscope $end
$scope module WriteBack $end
$var wire 32 ## ALU_ResultW [31:0] $end
$var wire 32 $# PCPlus4W [31:0] $end
$var wire 32 %# ReadDataW [31:0] $end
$var wire 1 % ResultSrcW $end
$var wire 1 ! clk $end
$var wire 1 " rst $end
$var wire 32 &# ResultW [31:0] $end
$scope module result_mux $end
$var wire 32 '# a [31:0] $end
$var wire 32 (# b [31:0] $end
$var wire 1 % s $end
$var wire 32 )# c [31:0] $end
$upscope $end
$upscope $end
$upscope $end
$upscope $end
$enddefinitions $end
$comment Show the parameter values. $end
$dumpall
$end
#0
$dumpvars
b0 )#
b0 (#
b0 '#
b0 &#
b0 %#
b0 $#
b0 ##
b0 "#
b0 !#
b0 ~"
b0 }"
b0 |"
b0 {"
b0 z"
b0 y"
b0 x"
b0 w"
b0 v"
b0 u"
b0 t"
b0 s"
b0 r"
b0 q"
b0 p"
b0 o"
b0 n"
b0 m"
b0 l"
b0 k"
bx j"
bx i"
bx h"
bx g"
b100 f"
bx e"
bx d"
b0 c"
bx b"
b0 a"
b0 `"
b0 _"
b0 ^"
b0 ]"
b0 \"
b0 ["
bx Z"
b0 Y"
bx X"
bx W"
b0 V"
b0 U"
b0 T"
b0 S"
b0 R"
b0 Q"
b0 P"
b0 O"
b0 N"
b0 M"
b0 L"
b0 K"
b0 J"
b0 I"
b0 H"
b0 G"
b0 F"
b0 E"
b0 D"
0C"
0B"
b0 A"
b0 @"
0?"
0>"
b0 ="
0<"
b0 ;"
b0 :"
b0 9"
b0 8"
07"
b0 6"
b0 5"
b0 4"
b0 3"
b0 2"
b0 1"
b0 0"
b0 /"
b0 ."
1-"
b0 ,"
b0 +"
b0 *"
b0 )"
b0 ("
b0 '"
b0 &"
b0 %"
b0 $"
b0 #"
b0 ""
b0 !"
b0 ~
b0 }
b0 |
b0 {
b0 z
b0 y
b0 x
b0 w
b0 v
b0 u
b0 t
b0 s
b0 r
b0 q
b0 p
b0 o
b0 n
b0 m
b0 l
b0 k
b0 j
0i
0h
b0 g
b0 f
b0 e
b0 d
b0 c
b0 b
b0 a
0`
b0 _
b0 ^
b0 ]
0\
0[
b0 Z
b0 Y
b0 X
0W
b0 V
b0 U
b0 T
b0 S
b0 R
0Q
0P
b0 O
b0 N
b0 M
b0 L
b0 K
b0 J
b0 I
b0 H
b0 G
b0 F
b0 E
0D
b0 C
b0 B
0A
b0 @
b0 ?
b0 >
b0 =
0<
0;
b0 :
b0 9
b0 8
b0 7
b0 6
b0 5
04
b0 3
b0 2
b0 1
b0 0
b0 /
b0 .
b0 -
b0 ,
b0 +
0*
0)
0(
0'
0&
0%
b0 $
b0 #
0"
1!
$end
#50
0!
#100
b100 W"
b100 d"
b100 i"
b100 X"
b100 e"
b100 g"
b0 Z"
b0 b"
b0 h"
b0 j"
1!
#150
0!
#200
b10100000000001010010011 \"
b10100000000001010010011 a"
1"
1!
#250
0!
#300
b101 Y
b101 z
bx S
bx ~
1Q
1\
b1100000000001100010011 \"
b1100000000001100010011 a"
b101 |
b10011 j
b10011 r
b10011 u
b1000 W"
b1000 d"
b1000 i"
b100 8
b100 U
b100 Y"
b10100000000001010010011 =
b10100000000001010010011 X
b10100000000001010010011 y
b10100000000001010010011 ]"
b1000 X"
b1000 e"
b1000 g"
b100 Z"
b100 b"
b100 h"
b100 j"
b100 `"
b10100000000001010010011 ^"
1!
#350
0!
#400
0-"
b101 2"
b101 A"
b11 Y
b11 z
b101 @"
b11000101000001110110011 \"
b11000101000001110110011 a"
b101 /"
b101 D"
b101 G"
b11 |
b1100 W"
b1100 d"
b1100 i"
bx ."
bx H"
bx T"
b1000 8
b1000 U
b1000 Y"
b100 :
b100 V
b100 ["
b1100000000001100010011 =
b1100000000001100010011 X
b1100000000001100010011 y
b1100000000001100010011 ]"
b1100 X"
b1100 e"
b1100 g"
b1000 Z"
b1000 b"
b1000 h"
b1000 j"
b101 ,
b101 N
b101 g
b101 m"
b100 7
b100 I
b100 &"
b100 b
b101 /
b101 L
b101 *"
b101 e
b101 3
b101 3"
b101 K"
b101 V"
b101 c"
b101 >
b101 G
b101 _
b101 $"
b101 F"
b101 J"
bx 1
bx K
bx d
bx )"
bx Q"
1D
1*
1h
b1000 `"
b100 _"
b1100000000001100010011 ^"
1!
#450
0!
#500
b11 2"
b11 A"
b110 Y
b110 z
bx T
bx !"
1Q
0\
b10 n
b10 s
b10 w
b10010000000011 \"
b10010000000011 a"
b110 |
b101 {
b110011 j
b110011 r
b110011 u
b11 @"
b10000 W"
b10000 d"
b10000 i"
b1100 8
b1100 U
b1100 Y"
b1000 :
b1000 V
b1000 ["
b11000101000001110110011 =
b11000101000001110110011 X
b11000101000001110110011 y
b11000101000001110110011 ]"
b11 /"
b11 D"
b11 G"
bx y"
bx "#
b10000 X"
b10000 e"
b10000 g"
b1100 Z"
b1100 b"
b1100 h"
b1100 j"
b1100 `"
b1000 _"
b11000101000001110110011 ^"
b11 ,
b11 N
b11 g
b11 m"
b1000 7
b1000 I
b1000 &"
b1000 b
b100 9
b100 H
b100 a
b100 %"
b100 I"
b110 /
b110 L
b110 *"
b110 e
b111 3
b111 3"
b111 K"
b111 V"
b111 c"
b11 >
b11 G
b11 _
b11 $"
b11 F"
b11 J"
b101 C
b101 6"
b101 ;"
b101 M"
b101 R"
b101 q"
b101 ~"
bx #
bx ,"
bx x"
bx !#
bx 9"
b100 6
b100 '"
b100 s"
b100 8"
b101 .
b101 +"
b101 :"
b101 k"
b101 u"
1)
1!
#550
0!
#600
0B"
0-"
b1 @
b1 5"
b1 N"
b1 p"
0?"
b1000 2"
b1000 A"
1\
b11 ."
b11 H"
b11 T"
b0 Y
b0 z
b0 S
b0 ~
b0 T
b0 !"
b10 ?
b10 4"
b10 S"
b10 o"
1P
b0 n
b0 s
b0 w
b100000000010010010011 \"
b100000000010010010011 a"
b1000 @"
b0 |
b0 {
b10 k
b10 p
b11 j
b11 r
b11 u
b10100 W"
b10100 d"
b10100 i"
b101 $
b101 O
b101 }
b101 1"
b101 P"
b101 U"
b101 &#
b101 )#
b11 /"
b11 D"
b11 G"
b101 0"
b101 E"
b101 O"
b10000 8
b10000 U
b10000 Y"
b1100 :
b1100 V
b1100 ["
b10010000000011 =
b10010000000011 X
b10010000000011 y
b10010000000011 ]"
b10100 X"
b10100 e"
b10100 g"
b10000 Z"
b10000 b"
b10000 h"
b10000 j"
bx +
bx w"
bx }"
bx %#
bx (#
b101 B
b101 r"
b101 z"
b101 ##
b101 '#
b100 5
b100 t"
b100 $#
b100 {"
b101 0
b101 R
b101 ""
b101 n"
b101 v"
b101 |"
1(
b11 C
b11 6"
b11 ;"
b11 M"
b11 R"
b11 q"
b11 ~"
b1000 6
b1000 '"
b1000 s"
b1000 8"
b110 .
b110 +"
b110 :"
b110 k"
b110 u"
b110 ,
b110 N
b110 g
b110 m"
b101 -
b101 M
b101 f
b101 l"
b1100 7
b1100 I
b1100 &"
b1100 b
b1000 9
b1000 H
b1000 a
b1000 %"
b1000 I"
b111 /
b111 L
b111 *"
b111 e
b1110 3
b1110 3"
b1110 K"
b1110 V"
b1110 c"
b110 >
b110 G
b110 _
b110 $"
b110 F"
b110 J"
bx 2
bx J
bx c
bx ("
bx L"
0D
b10000 `"
b1100 _"
b10010000000011 ^"
1!
#650
0!
#700
1-"
b0 2"
b0 A"
b1 Y
b1 z
bx S
bx ~
b0 @
b0 5"
b0 N"
b0 p"
0P
b0 @"
b0 ."
b0 H"
b0 T"
b0 ?
b0 4"
b0 S"
b0 o"
b0 0"
b0 E"
b0 O"
b100101000000010100110011 \"
b100101000000010100110011 a"
b1 |
b0 k
b0 p
b10011 j
b10011 r
b10011 u
b0 /"
b0 D"
b0 G"
b11000 W"
b11000 d"
b11000 i"
b10100 8
b10100 U
b10100 Y"
b10000 :
b10000 V
b10000 ["
b100000000010010010011 =
b100000000010010010011 X
b100000000010010010011 y
b100000000010010010011 ]"
b11 $
b11 O
b11 }
b11 1"
b11 P"
b11 U"
b11 &#
b11 )#
b11000 X"
b11000 e"
b11000 g"
b10100 Z"
b10100 b"
b10100 h"
b10100 j"
b10100 `"
b10000 _"
b100000000010010010011 ^"
b0 ,
b0 N
b0 g
b0 m"
b0 -
b0 M
b0 f
b0 l"
b10000 7
b10000 I
b10000 &"
b10000 b
b1100 9
b1100 H
b1100 a
b1100 %"
b1100 I"
b1000 /
b1000 L
b1000 *"
b1000 e
b1100 3
b1100 3"
b1100 K"
b1100 V"
b1100 c"
b0 >
b0 G
b0 _
b0 $"
b0 F"
b0 J"
b0 1
b0 K
b0 d
b0 )"
b0 Q"
b0 2
b0 J
b0 c
b0 ("
b0 L"
1'
1i
1D
b1000 C
b1000 6"
b1000 ;"
b1000 M"
b1000 R"
b1000 q"
b1000 ~"
b11 #
b11 ,"
b11 x"
b11 !#
b11 9"
b1100 6
b1100 '"
b1100 s"
b1100 8"
b111 .
b111 +"
b111 :"
b111 k"
b111 u"
b11 B
b11 r"
b11 z"
b11 ##
b11 '#
b1000 5
b1000 t"
b1000 $#
b1000 {"
b110 0
b110 R
b110 ""
b110 n"
b110 v"
b110 |"
1!
#750
0!
#800
0-"
b1 2"
b1 A"
b1001 Y
b1001 z
bx T
bx !"
1Q
0\
b10 n
b10 s
b10 w
bx \"
bx a"
b1 @"
b1001 |
b1000 {
b110011 j
b110011 r
b110011 u
b11100 W"
b11100 d"
b11100 i"
b1000 $
b1000 O
b1000 }
b1000 1"
b1000 P"
b1000 U"
b1000 &#
b1000 )#
b0 y"
b0 "#
b1 /"
b1 D"
b1 G"
bx ."
bx H"
bx T"
b11000 8
b11000 U
b11000 Y"
b10100 :
b10100 V
b10100 ["
b100101000000010100110011 =
b100101000000010100110011 X
b100101000000010100110011 y
b100101000000010100110011 ]"
b11100 X"
b11100 e"
b11100 g"
b11000 Z"
b11000 b"
b11000 h"
b11000 j"
b1000 B
b1000 r"
b1000 z"
b1000 ##
b1000 '#
b1100 5
b1100 t"
b1100 $#
b1100 {"
b111 0
b111 R
b111 ""
b111 n"
b111 v"
b111 |"
b0 C
b0 6"
b0 ;"
b0 M"
b0 R"
b0 q"
b0 ~"
b0 #
b0 ,"
b0 x"
b0 !#
b0 9"
b10000 6
b10000 '"
b10000 s"
b10000 8"
b1000 .
b1000 +"
b1000 :"
b1000 k"
b1000 u"
1&
1<"
b1 ,
b1 N
b1 g
b1 m"
b10100 7
b10100 I
b10100 &"
b10100 b
b10000 9
b10000 H
b10000 a
b10000 %"
b10000 I"
b1001 /
b1001 L
b1001 *"
b1001 e
b10001 3
b10001 3"
b10001 K"
b10001 V"
b10001 c"
b1 >
b1 G
b1 _
b1 $"
b1 F"
b1 J"
bx 1
bx K
bx d
bx )"
bx Q"
0'
0i
b11000 `"
b10100 _"
b100101000000010100110011 ^"
1!
#850
0!
#900
0B"
0-"
xQ
bx ]
bx o
bx t
0?"
b1 2"
b1 A"
bx Y
bx z
x\
b1 ."
b1 H"
b1 T"
b1 @
b1 5"
b1 N"
b1 p"
bx Z
bx m
bx v
bx x
xW
xP
x[
bx n
bx s
bx w
b10 ?
b10 4"
b10 S"
b10 o"
bx |
bx {
bx l
bx q
bx k
bx p
bx j
bx r
bx u
b1 @"
b100000 W"
b100000 d"
b100000 i"
b11100 8
b11100 U
b11100 Y"
b11000 :
b11000 V
b11000 ["
bx =
bx X
bx y
bx ]"
b1 /"
b1 D"
b1 G"
b0 0"
b0 E"
b0 O"
bx y"
bx "#
b0 $
b0 O
b0 }
b0 1"
b0 P"
b0 U"
b0 &#
b0 )#
b100000 X"
b100000 e"
b100000 g"
b11100 Z"
b11100 b"
b11100 h"
b11100 j"
b11100 `"
b11000 _"
bx ^"
b1001 ,
b1001 N
b1001 g
b1001 m"
b1000 -
b1000 M
b1000 f
b1000 l"
b11000 7
b11000 I
b11000 &"
b11000 b
b10100 9
b10100 H
b10100 a
b10100 %"
b10100 I"
b1010 /
b1010 L
b1010 *"
b1010 e
b11101 3
b11101 3"
b11101 K"
b11101 V"
b11101 c"
b1001 >
b1001 G
b1001 _
b1001 $"
b1001 F"
b1001 J"
bx 2
bx J
bx c
bx ("
bx L"
0D
b1 C
b1 6"
b1 ;"
b1 M"
b1 R"
b1 q"
b1 ~"
bx #
bx ,"
bx x"
bx !#
bx 9"
b10100 6
b10100 '"
b10100 s"
b10100 8"
b1001 .
b1001 +"
b1001 :"
b1001 k"
b1001 u"
0&
0<"
b0 +
b0 w"
b0 }"
b0 %#
b0 (#
b0 B
b0 r"
b0 z"
b0 ##
b0 '#
b10000 5
b10000 t"
b10000 $#
b10000 {"
b1000 0
b1000 R
b1000 ""
b1000 n"
b1000 v"
b1000 |"
1%
1!
#950
0!
#1000
xB"
x?"
bx ."
bx H"
bx T"
x4
bx 0"
bx E"
bx O"
bx ?
bx 4"
bx S"
bx o"
bx @
bx 5"
bx N"
bx p"
x-"
bx @"
bx 2"
bx A"
bx /"
bx D"
bx G"
bx W"
bx d"
bx i"
b1 $
b1 O
b1 }
b1 1"
b1 P"
b1 U"
b1 &#
b1 )#
b100000 8
b100000 U
b100000 Y"
b11100 :
b11100 V
b11100 ["
b100100 X"
b100100 e"
b100100 g"
b100000 Z"
b100000 b"
b100000 h"
b100000 j"
bx +
bx w"
bx }"
bx %#
bx (#
b1 B
b1 r"
b1 z"
b1 ##
b1 '#
b10100 5
b10100 t"
b10100 $#
b10100 {"
b1001 0
b1001 R
b1001 ""
b1001 n"
b1001 v"
b1001 |"
0%
b1 #
b1 ,"
b1 x"
b1 !#
b1 9"
b11000 6
b11000 '"
b11000 s"
b11000 8"
b1010 .
b1010 +"
b1010 :"
b1010 k"
b1010 u"
bx ,
bx N
bx g
bx m"
bx -
bx M
bx f
bx l"
b11100 7
b11100 I
b11100 &"
b11100 b
b11000 9
b11000 H
b11000 a
b11000 %"
b11000 I"
bx /
bx L
bx *"
bx e
bx 3
bx 3"
bx K"
bx V"
bx c"
bx >
bx G
bx _
bx $"
bx F"
bx J"
bx E
bx F
bx ^
bx #"
bx ="
xA
x'
xi
x<
x`
xD
x*
xh
b100000 `"
b11100 _"
1!
#1050
0!
#1100
b100100 8
b100100 U
b100100 Y"
b100000 :
b100000 V
b100000 ["
bx X"
bx e"
bx g"
bx Z"
bx b"
bx h"
bx j"
b100100 `"
b100000 _"
b100000 7
b100000 I
b100000 &"
b100000 b
b11100 9
b11100 H
b11100 a
b11100 %"
b11100 I"
bx C
bx 6"
bx ;"
bx M"
bx R"
bx q"
bx ~"
bx #
bx ,"
bx x"
bx !#
bx 9"
b11100 6
b11100 '"
b11100 s"
b11100 8"
bx .
bx +"
bx :"
bx k"
bx u"
x&
x<"
x;
x7"
x)
b11000 5
b11000 t"
b11000 $#
b11000 {"
b1010 0
b1010 R
b1010 ""
b1010 n"
b1010 v"
b1010 |"
1!
#1150
0!
#1200
bx $
bx O
bx }
bx 1"
bx P"
bx U"
bx &#
bx )#
bx 8
bx U
bx Y"
bx :
bx V
bx ["
bx B
bx r"
bx z"
bx ##
bx '#
b11100 5
b11100 t"
b11100 $#
b11100 {"
bx 0
bx R
bx ""
bx n"
bx v"
bx |"
x%
x(
b100000 6
b100000 '"
b100000 s"
b100000 8"
b100100 7
b100100 I
b100100 &"
b100100 b
b100000 9
b100000 H
b100000 a
b100000 %"
b100000 I"
bx `"
bx _"
1!
